…
**Create a data frame.**

``` r
x = rnorm(500)
y = rnorm(500)
vec_logical2 = x + y > 1
vec_numeric2 = as.numeric(vec_logical2)
vec_factor2 = as.factor(vec_logical2)

df2 = tibble(x, y, vec_logical2, vec_numeric2, vec_factor2)

df2
```

    ## # A tibble: 500 x 5
    ##          x       y vec_logical2 vec_numeric2 vec_factor2
    ##      <dbl>   <dbl> <lgl>               <dbl> <fct>      
    ##  1  1.08    0.278  TRUE                    1 TRUE       
    ##  2 -0.693   2.25   TRUE                    1 TRUE       
    ##  3  0.0239 -1.55   FALSE                   0 FALSE      
    ##  4 -1.57   -0.755  FALSE                   0 FALSE      
    ##  5  2.99   -0.0691 TRUE                    1 TRUE       
    ##  6 -0.0591 -1.29   FALSE                   0 FALSE      
    ##  7  1.50    1.06   TRUE                    1 TRUE       
    ##  8 -0.166   0.257  FALSE                   0 FALSE      
    ##  9  0.231  -0.740  FALSE                   0 FALSE      
    ## 10 -0.910   0.177  FALSE                   0 FALSE      
    ## # ... with 490 more rows
…
